[
  {
    "name":"Name - Thomas Davis"

  },
  {
    "name":"Title - Web Developer"

  },
  {
    "name":"Summary - I’m a full stack web developer who loves working with open source technology. I work best at planning the architecture of web  applications and their development life cycles. I also love to get the community involved and have had much experience with building and organizing large open source groups. Specialties: React, Redux, Javascript - Full stack developer with lots of experience in lots of stuff "
  },
  {
    "name":"Email - thomasalwyndavis@gmail.com"
  },
  {
    "name":"LinkedIn - 'https://ajaxdavis.com'"
  },
  {
    "name":	"Education : endDate : 2009-12-12 , startDate : 2008-02-12 area : Software Engineering , studyType : Bachelors ,institution : The University of Queensland"
  },
  {
    "name": "Skills"
  },
  {"name": "HTML"},
  {"name": "CSS"},
  {"name": "JavaScript"},
  {"name": "React"},
  {"name": "Redux"},
  {"name": "Work Summary 1"},
  {"name": "An Australian crypto currency exchange /n https://blockbid.io /n Blockbid "},
  {"name": "Role - Developer "},
  {"name": "Start Date - 2018-03-01 "},
  {"name": "Work Summary 2"},
  {"name": "An Canadian crypto currency exchange /n https://Zoola.io /n BlockChain "},
  {"name": "Role - Senior Developer "},
  {"name": "Start Date - 2019-03-01 "}
]


